<?xml version="1.0" standalone="no"?>
<!DOCTYPE svg PUBLIC "-//W3C//DTD SVG 20010904//EN"
 "http://www.w3.org/TR/2001/REC-SVG-20010904/DTD/svg10.dtd">
<svg version="1.0" xmlns="http://www.w3.org/2000/svg"
 width="1024.000000pt" height="1024.000000pt" viewBox="0 0 1024.000000 1024.000000"
 preserveAspectRatio="xMidYMid meet">
<metadata>
Created by potrace 1.11, written by Peter Selinger 2001-2013
</metadata>
<g transform="translate(0.000000,1024.000000) scale(0.100000,-0.100000)"
fill="#000000" stroke="none">
<path d="M1021 10231 c-1 -7 -7 -11 -16 -8 -8 4 -17 1 -21 -5 -4 -7 -9 -6 -15
3 -6 10 -9 11 -9 2 0 -7 -12 -13 -26 -13 -17 0 -23 -4 -18 -12 5 -9 2 -9 -9 1
-11 9 -17 10 -17 2 0 -6 -3 -10 -7 -9 -18 5 -83 -14 -78 -22 3 -6 -1 -7 -9 -4
-8 3 -25 -2 -38 -10 -14 -9 -28 -13 -31 -9 -4 3 -7 0 -7 -7 0 -7 -3 -10 -7 -7
-3 4 -12 -1 -20 -11 -9 -10 -11 -11 -7 -2 7 12 5 13 -8 3 -8 -7 -19 -9 -23 -5
-5 4 -5 1 -1 -5 5 -9 0 -13 -13 -13 -11 0 -25 -9 -31 -20 -6 -11 -15 -18 -20
-15 -12 7 -52 -19 -44 -28 4 -4 -3 -4 -15 -2 -13 2 -19 0 -15 -6 3 -6 -3 -13
-15 -16 -12 -3 -21 -12 -21 -20 0 -8 -5 -11 -11 -8 -5 4 -23 -7 -40 -24 -16
-17 -34 -31 -40 -31 -6 0 -8 -7 -5 -16 3 -8 2 -12 -4 -9 -11 7 -40 -18 -40
-34 0 -6 -5 -10 -12 -9 -7 2 -12 -3 -13 -9 0 -7 -4 -13 -9 -12 -5 0 -14 -10
-21 -23 -6 -13 -18 -22 -25 -20 -11 3 -11 0 1 -14 8 -10 10 -15 4 -12 -5 3
-16 0 -23 -8 -7 -8 -10 -14 -5 -14 4 0 -1 -6 -12 -13 -10 -8 -15 -19 -11 -25
5 -8 1 -10 -10 -5 -13 5 -16 3 -11 -10 4 -10 2 -17 -4 -17 -6 0 -9 -7 -6 -14
4 -11 1 -13 -10 -9 -10 4 -14 2 -10 -4 4 -6 2 -13 -3 -15 -6 -2 -12 -13 -13
-25 0 -12 -4 -20 -7 -18 -7 4 -46 -86 -43 -97 2 -5 -5 -8 -15 -8 -13 0 -14 -2
-3 -9 9 -6 10 -11 2 -15 -6 -4 -11 -18 -11 -32 0 -14 -4 -22 -10 -19 -6 4 -10
-6 -10 -24 0 -16 -5 -33 -11 -37 -8 -4 -7 -9 2 -15 11 -7 11 -9 1 -9 -7 0 -10
-4 -7 -10 3 -5 2 -10 -3 -10 -6 0 -8 -10 -4 -22 4 -15 2 -19 -7 -13 -10 6 -11
3 -2 -13 15 -28 14 -35 -4 -29 -11 5 -12 1 -5 -18 5 -14 6 -25 2 -25 -4 0 -7
-13 -8 -30 -1 -17 3 -27 9 -23 6 4 7 1 1 -8 -12 -19 -15 -8119 -3 -8119 5 0 9
-5 9 -11 0 -5 -6 -7 -12 -3 -9 6 -9 3 0 -9 8 -9 11 -21 7 -27 -3 -5 -1 -10 5
-10 6 0 8 -5 4 -11 -3 -6 0 -15 7 -20 12 -7 12 -9 0 -9 -11 0 -11 -3 -1 -15 7
-8 10 -22 6 -30 -3 -9 -2 -13 4 -10 6 3 10 -5 10 -19 0 -14 5 -26 11 -26 6 0
9 -6 6 -14 -3 -7 1 -23 9 -34 8 -12 14 -25 13 -29 -3 -20 2 -34 11 -28 5 3 10
-1 10 -9 0 -8 11 -35 25 -59 13 -25 21 -47 18 -51 -4 -3 -1 -6 6 -6 6 0 16
-12 21 -26 6 -16 14 -23 22 -18 7 4 10 3 5 -1 -4 -5 3 -20 15 -34 13 -14 16
-21 8 -16 -10 6 -9 4 2 -6 9 -9 14 -19 11 -23 -4 -3 1 -6 10 -6 10 0 17 -8 17
-20 0 -11 6 -19 13 -18 6 2 11 -3 9 -9 -1 -7 4 -13 12 -13 8 0 18 -10 21 -21
6 -17 9 -19 16 -8 6 10 9 8 9 -8 0 -13 5 -23 10 -23 6 0 29 -19 52 -42 23 -24
38 -36 34 -28 -4 8 1 5 12 -7 11 -12 22 -19 26 -16 3 4 6 -2 6 -12 0 -10 3
-15 7 -12 3 4 12 -1 20 -11 9 -10 12 -11 7 -2 -4 9 3 6 17 -7 31 -27 156 -93
163 -85 3 3 6 0 6 -6 0 -7 9 -12 20 -12 11 0 20 -4 20 -8 0 -5 7 -9 15 -10 8
-1 22 -3 30 -4 8 -1 15 -5 15 -10 0 -4 11 -8 25 -8 14 0 25 -6 25 -12 0 -9 4
-8 10 2 8 13 14 8 12 -11 -1 -3 12 -3 29 -1 18 3 29 0 29 -7 0 -8 6 -9 18 -2
12 6 23 5 35 -4 15 -11 746 -13 4128 -13 2260 0 4109 3 4109 7 0 4 8 7 18 7
38 2 84 13 98 25 12 10 17 10 23 1 6 -9 15 -7 34 8 19 15 27 17 27 8 0 -10 2
-10 9 1 5 7 14 10 20 7 6 -4 11 -3 11 2 0 5 18 14 40 21 22 6 40 16 40 22 0 6
5 7 10 4 6 -3 10 -1 10 6 0 7 3 9 7 6 3 -4 14 0 24 9 9 8 26 16 38 17 11 1 23
7 25 14 3 7 12 13 20 13 8 0 22 10 31 22 8 13 18 22 20 21 12 -7 26 -2 20 7
-3 6 1 10 10 10 8 0 18 7 21 15 4 8 9 13 13 11 4 -3 15 6 25 19 10 14 22 22
27 19 5 -3 9 0 9 7 0 15 47 59 54 51 3 -3 6 0 6 6 0 6 11 22 25 36 14 14 25
29 25 34 0 6 7 12 15 16 8 3 20 17 25 31 6 16 14 23 22 19 7 -5 8 -3 3 6 -5 8
-2 18 9 26 10 7 18 16 19 21 1 4 6 7 12 5 5 -2 7 0 3 4 -4 4 -3 13 3 21 6 7 8
13 3 13 -4 0 1 7 12 16 10 8 12 12 5 8 -10 -5 -8 3 5 22 23 32 38 65 36 77 -1
4 3 7 9 7 6 0 9 7 5 15 -3 8 -1 15 5 15 6 0 7 5 4 10 -3 6 -1 10 5 10 6 0 8 5
4 11 -3 6 -3 14 2 18 9 6 36 93 37 119 0 6 5 12 11 12 6 0 4 5 -4 10 -8 5 -10
10 -4 10 5 0 11 12 13 28 8 71 6 8119 -2 8136 -6 12 -5 16 1 12 12 -7 4 73 -9
90 -5 6 -3 16 3 22 7 7 8 12 2 12 -5 0 -10 11 -11 25 -4 45 -6 55 -14 55 -4 0
-7 6 -6 13 1 32 -4 48 -13 42 -14 -9 -13 8 2 23 9 9 9 12 -1 12 -7 0 -9 5 -6
10 3 6 1 10 -5 10 -6 0 -8 5 -5 10 3 6 -2 10 -12 10 -15 0 -16 2 -3 10 12 8
12 10 -5 11 -19 0 -19 1 -1 8 18 7 18 8 3 14 -9 3 -17 13 -17 22 0 9 -7 27
-16 40 -9 13 -13 29 -9 35 4 6 2 9 -3 8 -6 -2 -10 1 -10 6 0 5 -6 12 -14 17
-7 5 -14 13 -14 19 -1 5 -2 15 -3 20 0 6 -9 10 -18 11 -12 0 -13 2 -5 6 9 3 7
10 -9 24 -12 10 -18 19 -13 19 5 0 1 5 -8 11 -10 5 -18 15 -18 20 0 6 -14 24
-30 39 -17 15 -30 32 -30 38 0 5 -8 16 -17 23 -17 13 -17 13 -3 -6 14 -19 14
-19 -2 -6 -10 7 -18 18 -18 24 0 15 -45 54 -59 49 -6 -2 -11 0 -10 5 1 4 1 15
0 23 -1 13 -2 13 -11 0 -9 -13 -10 -13 -11 0 -1 8 -1 19 0 23 1 5 -3 6 -9 2
-5 -3 -20 3 -32 14 -12 12 -26 21 -30 21 -5 0 -6 4 -3 10 4 6 -1 7 -11 3 -13
-5 -15 -3 -9 8 8 12 6 12 -9 0 -9 -8 -16 -10 -15 -5 1 5 1 15 0 23 -1 11 -4
11 -18 0 -11 -10 -14 -10 -9 -1 6 11 -4 17 -26 13 -4 0 -4 7 -1 16 4 10 2 14
-4 10 -6 -4 -23 3 -37 14 -15 12 -33 18 -41 15 -8 -3 -20 0 -28 7 -23 21 -56
37 -77 37 -11 0 -20 5 -20 10 0 7 -7 7 -21 -1 -12 -6 -19 -7 -15 -1 3 5 -2 16
-11 23 -12 10 -14 10 -9 2 10 -17 -9 -17 -23 0 -6 8 -23 12 -42 9 -20 -3 -29
-1 -26 5 4 6 -5 9 -23 7 -19 -2 -30 1 -30 9 0 8 -4 7 -10 -3 -9 -13 -11 -13
-20 0 -7 11 -10 11 -10 2 0 -7 -4 -10 -10 -7 -20 12 -50 14 -50 2 0 -8 -3 -9
-8 -1 -9 12 -8032 14 -8032 1 0 -4 -9 -3 -20 3 -16 9 -20 8 -21 -7 0 -16 -1
-16 -9 2 -5 11 -9 14 -9 6z"/>
</g>
</svg>
